[{
		"name": "somafm",
		"host": "ice1.somafm.com",
		"port": 80,
		"channels": [{
			"name": "u80s",
			"url": "u80s-128-mp3"
		}, {
			"name": "u70s",
			"url": "seventies-128-mp3"
		}]
	},

	{
		"name": "govoritmoskva",
		"host": "media.govoritmoskva.ru",
		"port": 8000,
		"channels": [{
			"name": "default",
			"url": "rufm_m.mp3"
		}]
	},

	{
		"name": "maximum",
		"host": "broadcast.rr.ru",
		"port": 80,
		"channels": [{
			"name": "default",
			"url": "maximum.mp3"
		}]
	}
]